{
    "192.168.0.222": {
        "ip": "192.168.0.222", 
        "hostname": "192.168.0.222", 
        "client-key": "990a1670a194ac0395a139c558c2845e", 
        "mac-address": null
    }, 
    "192.168.0.248": {
        "ip": "192.168.0.248", 
        "hostname": "192.168.0.248", 
        "client-key": "f9a05ec000943702da15fb74e3b74af5", 
        "mac-address": null
    }, 
    "192.168.0.229": {
        "ip": "192.168.0.229", 
        "hostname": "192.168.0.229", 
        "client-key": "82df3b0b329625f8494fe660abcd01a3", 
        "mac-address": null
    }, 
    "192.168.0.223": {
        "ip": "192.168.0.223", 
        "hostname": "192.168.0.223", 
        "client-key": "cd7902d80eb23cbe8763f0a7fe047c94", 
        "mac-address": null
    }, 
    "192.168.0.233": {
        "ip": "192.168.0.233", 
        "hostname": "192.168.0.233", 
        "client-key": "e127e04a5feff7060e440d6a878cc4f8", 
        "mac-address": null
    }, 
    "192.168.0.239": {
        "ip": "192.168.0.239", 
        "hostname": "192.168.0.239", 
        "client-key": "bcc62b36c59cd7d7b0af32fd14e49048", 
        "mac-address": null
    }, 
    "192.168.0.238": {
        "ip": "192.168.0.238", 
        "hostname": "192.168.0.238", 
        "client-key": "995b74ee087794233578724e455948dc", 
        "mac-address": null
    }, 
    "192.168.0.219": {
        "ip": "192.168.0.219", 
        "hostname": "192.168.0.219", 
        "client-key": "d80392af0f25ce08c43a96e4d04a2c8e", 
        "mac-address": null
    }, 
    "192.168.0.218": {
        "ip": "192.168.0.218", 
        "hostname": "192.168.0.218", 
        "client-key": "28876d02ac39954cf4dd76314be3337c", 
        "mac-address": null
    }, 
    "192.168.0.232": {
        "ip": "192.168.0.232", 
        "hostname": "192.168.0.232", 
        "client-key": "a9919995c13c623abb453db0188b5207", 
        "mac-address": null
    }, 
    "192.168.0.215": {
        "ip": "192.168.0.215", 
        "hostname": "192.168.0.215", 
        "client-key": "e31212e63e69cd87d492139b0ad99315", 
        "mac-address": null
    }, 
    "192.168.0.214": {
        "ip": "192.168.0.214", 
        "hostname": "192.168.0.214", 
        "client-key": "7250482add527fe5fc13003252064cf1", 
        "mac-address": null
    }, 
    "192.168.0.217": {
        "ip": "192.168.0.217", 
        "hostname": "192.168.0.217", 
        "client-key": "e7faf02ccb77031c7ee1463637d82f56", 
        "mac-address": null
    }, 
    "192.168.0.216": {
        "ip": "192.168.0.216", 
        "hostname": "192.168.0.216", 
        "client-key": "464eb13d1455729d862ed84bcf2a0d7a", 
        "mac-address": null
    }, 
    "192.168.0.211": {
        "ip": "192.168.0.211", 
        "hostname": "192.168.0.211", 
        "client-key": "71ec17578f2e9a2cb8c1c98e7a3a8960", 
        "mac-address": null
    }, 
    "192.168.0.210": {
        "ip": "192.168.0.210", 
        "hostname": "192.168.0.210", 
        "client-key": "8bae383e10f3c0e6a62e760b12713527", 
        "mac-address": null
    }, 
    "192.168.0.213": {
        "ip": "192.168.0.213", 
        "hostname": "192.168.0.213", 
        "client-key": "c42cd6446e487e4edecc05d554d3a2bd", 
        "mac-address": null
    }, 
    "192.168.0.212": {
        "ip": "192.168.0.212", 
        "hostname": "192.168.0.212", 
        "client-key": "6098812d60f467398b3f1f56f17e1a54", 
        "mac-address": null
    }, 
    "192.168.0.230": {
        "ip": "192.168.0.230", 
        "hostname": "192.168.0.230", 
        "client-key": "41fff2925c29cc690681562dcf178ddc", 
        "mac-address": null
    }, 
    "192.168.0.189": {
        "ip": "192.168.0.189", 
        "hostname": "192.168.0.189", 
        "client-key": "6d132744f1ba556ec0487c3233683568", 
        "mac-address": null
    }, 
    "192.168.0.188": {
        "ip": "192.168.0.188", 
        "hostname": "192.168.0.188", 
        "client-key": "37bceb8b3d87e97f901bb5f51be47fcb", 
        "mac-address": null
    }, 
    "192.168.0.185": {
        "ip": "192.168.0.185", 
        "hostname": "192.168.0.185", 
        "client-key": "add494c8457e56e66df033f24683e8b4", 
        "mac-address": null
    }, 
    "192.168.0.184": {
        "ip": "192.168.0.184", 
        "hostname": "192.168.0.184", 
        "client-key": "ff74102caef7c82698ac2d29aa626cc9", 
        "mac-address": null
    }, 
    "192.168.0.187": {
        "ip": "192.168.0.187", 
        "hostname": "192.168.0.187", 
        "client-key": "f0ebe16204915c2eae7d8be5a61359db", 
        "mac-address": null
    }, 
    "192.168.0.186": {
        "ip": "192.168.0.186", 
        "hostname": "192.168.0.186", 
        "client-key": "e1f3409e3d0444e258cb4e26a0230f0c", 
        "mac-address": null
    }, 
    "192.168.0.181": {
        "ip": "192.168.0.181", 
        "hostname": "192.168.0.181", 
        "client-key": "85001297d0ea1aaf7490cbdba987beae", 
        "mac-address": null
    }, 
    "192.168.0.180": {
        "ip": "192.168.0.180", 
        "hostname": "192.168.0.180", 
        "client-key": "4f2011638fb4809e739ea6d3d85a0177", 
        "mac-address": null
    }, 
    "192.168.0.183": {
        "ip": "192.168.0.183", 
        "hostname": "192.168.0.183", 
        "client-key": "bfdefed49a74727b6f326a025eea4f4a", 
        "mac-address": null
    }, 
    "192.168.0.182": {
        "ip": "192.168.0.182", 
        "hostname": "192.168.0.182", 
        "client-key": "f91827dc9a6bd120a4367fc81fabafd5", 
        "mac-address": null
    }, 
    "192.168.0.244": {
        "ip": "192.168.0.244", 
        "hostname": "192.168.0.244", 
        "client-key": "5bd6bb9c257f42b4914f39b5ee9e06e9", 
        "mac-address": null
    }, 
    "192.168.0.249": {
        "ip": "192.168.0.249", 
        "hostname": "192.168.0.249", 
        "client-key": "e62fc035a2c9d64bba3d0266b97a24dc", 
        "mac-address": null
    }, 
    "192.168.0.235": {
        "ip": "192.168.0.235", 
        "hostname": "192.168.0.235", 
        "client-key": "8663e6f267fe379816bce85a8346b6ee", 
        "mac-address": null
    }, 
    "192.168.0.240": {
        "ip": "192.168.0.240", 
        "hostname": "192.168.0.240", 
        "client-key": "0a86f5f8d28a24017c3a5f1af7e869b4", 
        "mac-address": null
    }, 
    "192.168.0.234": {
        "ip": "192.168.0.234", 
        "hostname": "192.168.0.234", 
        "client-key": "3cf9c8781b888f42c3b86af5797a69e9", 
        "mac-address": null
    }, 
    "192.168.0.228": {
        "ip": "192.168.0.228", 
        "hostname": "192.168.0.228", 
        "client-key": "b30b1b7c2002c4dff2bb585cc40b7ba9", 
        "mac-address": null
    }, 
    "192.168.0.243": {
        "ip": "192.168.0.243", 
        "hostname": "192.168.0.243", 
        "client-key": "e21df687fcd1020db5ae719b51f3c03d", 
        "mac-address": null
    }, 
    "192.168.0.237": {
        "ip": "192.168.0.237", 
        "hostname": "192.168.0.237", 
        "client-key": "984104b962d9ecde595ce8ae1d35eb12", 
        "mac-address": null
    }, 
    "192.168.0.236": {
        "ip": "192.168.0.236", 
        "hostname": "192.168.0.236", 
        "client-key": "c4b7e745b80b830787f3f4f395c82fda", 
        "mac-address": null
    }, 
    "192.168.0.245": {
        "ip": "192.168.0.245", 
        "hostname": "192.168.0.245", 
        "client-key": "fb04a3896c9d46593b0356f68590b658", 
        "mac-address": null
    }, 
    "192.168.0.224": {
        "ip": "192.168.0.224", 
        "hostname": "192.168.0.224", 
        "client-key": "47ecc1ab7f44f2eae36142ccf0606c21", 
        "mac-address": null
    }, 
    "192.168.0.225": {
        "ip": "192.168.0.225", 
        "hostname": "192.168.0.225", 
        "client-key": "bf3ecd8fb25eb5525470eb93da16ac32", 
        "mac-address": null
    }, 
    "192.168.0.226": {
        "ip": "192.168.0.226", 
        "hostname": "192.168.0.226", 
        "client-key": "593e0e0781cc652885d0cffb350903dd", 
        "mac-address": null
    }, 
    "192.168.0.227": {
        "ip": "192.168.0.227", 
        "hostname": "192.168.0.227", 
        "client-key": "64bbcc98bae1b59225a3e44465c93dc5", 
        "mac-address": null
    }, 
    "192.168.0.220": {
        "ip": "192.168.0.220", 
        "hostname": "192.168.0.220", 
        "client-key": "a93707adb2f2320f93bf9a4d979d0794", 
        "mac-address": null
    }, 
    "192.168.0.221": {
        "ip": "192.168.0.221", 
        "hostname": "192.168.0.221", 
        "client-key": "68c3160bc8cb7459773ee02df33ca3d3", 
        "mac-address": null
    }, 
    "192.168.0.208": {
        "ip": "192.168.0.208", 
        "hostname": "192.168.0.208", 
        "client-key": "0277ca81c5f3769ec453fdc0dde6429b", 
        "mac-address": null
    }, 
    "192.168.0.209": {
        "ip": "192.168.0.209", 
        "hostname": "192.168.0.209", 
        "client-key": "b343d746d654df8be591f1cbb8cd1dbf", 
        "mac-address": null
    }, 
    "192.168.0.206": {
        "ip": "192.168.0.206", 
        "hostname": "192.168.0.206", 
        "client-key": "89c767d16cc2546f9b0191f2762ca137", 
        "mac-address": null
    }, 
    "192.168.0.207": {
        "ip": "192.168.0.207", 
        "hostname": "192.168.0.207", 
        "client-key": "a0c7f6a00edffca447f7ea2082179034", 
        "mac-address": null
    }, 
    "192.168.0.204": {
        "ip": "192.168.0.204", 
        "hostname": "192.168.0.204", 
        "client-key": "f75693027810a4cfa506d096efe8c4a7", 
        "mac-address": null
    }, 
    "192.168.0.205": {
        "ip": "192.168.0.205", 
        "hostname": "192.168.0.205", 
        "client-key": "f453b2fa1faf044ac8b1a480c8e7e98e", 
        "mac-address": null
    }, 
    "192.168.0.202": {
        "ip": "192.168.0.202", 
        "hostname": "192.168.0.202", 
        "client-key": "9f374584a29be0646c4234fb24f39dc1", 
        "mac-address": null
    }, 
    "192.168.0.203": {
        "ip": "192.168.0.203", 
        "hostname": "192.168.0.203", 
        "client-key": "8fee58305e7015c56876f8714ee48b6c", 
        "mac-address": null
    }, 
    "192.168.0.200": {
        "ip": "192.168.0.200", 
        "hostname": "192.168.0.200", 
        "client-key": "a7ee5ffa650d2eaedf83af90eedfb02a", 
        "mac-address": null
    }, 
    "192.168.0.201": {
        "ip": "192.168.0.201", 
        "hostname": "192.168.0.201", 
        "client-key": "9fd2affb8ff58bdfabedd34414c12b8f", 
        "mac-address": null
    }, 
    "192.168.0.242": {
        "ip": "192.168.0.242", 
        "hostname": "192.168.0.242", 
        "client-key": "944f332d85c7734f5b5f79d2e0f6c198", 
        "mac-address": null
    }, 
    "192.168.0.198": {
        "ip": "192.168.0.198", 
        "hostname": "192.168.0.198", 
        "client-key": "a11647b30606d68c1771ba5a77a8d787", 
        "mac-address": null
    }, 
    "192.168.0.199": {
        "ip": "192.168.0.199", 
        "hostname": "192.168.0.199", 
        "client-key": "2f02e13106ead7d1e3de83cef77dc242", 
        "mac-address": null
    }, 
    "192.168.0.196": {
        "ip": "192.168.0.196", 
        "hostname": "192.168.0.196", 
        "client-key": "40016c43c0327055d5af508b09c01e43", 
        "mac-address": null
    }, 
    "192.168.0.197": {
        "ip": "192.168.0.197", 
        "hostname": "192.168.0.197", 
        "client-key": "0f3cafc82727fc2c4fdd5087aba565ff", 
        "mac-address": null
    }, 
    "192.168.0.194": {
        "ip": "192.168.0.194", 
        "hostname": "192.168.0.194", 
        "client-key": "a9d9b13acc0e622eb9d334dd1107fe62", 
        "mac-address": null
    }, 
    "192.168.0.195": {
        "ip": "192.168.0.195", 
        "hostname": "192.168.0.195", 
        "client-key": "a0354eb0b0b50ada0c314cd0b8debed5", 
        "mac-address": null
    }, 
    "192.168.0.192": {
        "ip": "192.168.0.192", 
        "hostname": "192.168.0.192", 
        "client-key": "db860cfe11cd4705db876986810289cb", 
        "mac-address": null
    }, 
    "192.168.0.193": {
        "ip": "192.168.0.193", 
        "hostname": "192.168.0.193", 
        "client-key": "d9ab9e6598899d92521e60e1d8bee024", 
        "mac-address": null
    }, 
    "192.168.0.190": {
        "ip": "192.168.0.190", 
        "hostname": "192.168.0.190", 
        "client-key": "ce2e46553a14c1236d51cb7d2f42037b", 
        "mac-address": null
    }, 
    "192.168.0.191": {
        "ip": "192.168.0.191", 
        "hostname": "192.168.0.191", 
        "client-key": "aab5d95bd3693d980b12858024761f7e", 
        "mac-address": null
    }, 
    "192.168.0.231": {
        "ip": "192.168.0.231", 
        "hostname": "192.168.0.231", 
        "client-key": "bf942aef98b6af3e5dedf39159f94bb6", 
        "mac-address": null
    }, 
    "192.168.0.241": {
        "ip": "192.168.0.241", 
        "hostname": "192.168.0.241", 
        "client-key": "50ed83536c047d4c9b88170fac1eea5f", 
        "mac-address": null
    }, 
    "192.168.0.246": {
        "ip": "192.168.0.246", 
        "hostname": "192.168.0.246", 
        "client-key": "ab799fb97a5ab5e267359f0cf2215269", 
        "mac-address": null
    }, 
    "192.168.0.247": {
        "ip": "192.168.0.247", 
        "hostname": "192.168.0.247", 
        "client-key": "c70c538065706e207f087493f8ce0f80", 
        "mac-address": null
    }
}
